0.005221,0.007140,0.007021
0.001977,0.008840,0.007578
0.000111,0.008456,0.005059
0.004948,0.007807,0.004501
0.005675,0.005749,0.008128
0.002529,0.004144,0.007854
0.004788,0.006864,0.003196
0.003558,0.008904,0.001664
0.007677,0.001159,0.008201
0.002445,0.001429,0.004433